<?xml version="1.0" encoding="UTF-8" standalone="no"?>
<svg xmlns:dc="http://purl.org/dc/elements/1.1/"
   xmlns:cc="http://creativecommons.org/ns#"
   xmlns:rdf="http://www.w3.org/1999/02/22-rdf-syntax-ns#"
   xmlns:svg="http://www.w3.org/2000/svg"
   xmlns="http://www.w3.org/2000/svg"
   xmlns:sodipodi="http://sodipodi.sourceforge.net/DTD/sodipodi-0.dtd"
   xmlns:inkscape="http://www.inkscape.org/namespaces/inkscape" id="Слой_1" data-name="Слой 1" viewBox="0 0 24 24" version="1.1" sodipodi:docname="icon.svg" inkscape:version="1.0.1 (3bc2e813f5, 2020-09-07)">
   <sodipodi:namedview pagecolor="#ffffff" bordercolor="#666666" borderopacity="1" objecttolerance="10" gridtolerance="10" guidetolerance="10" inkscape:pageopacity="0" inkscape:pageshadow="2" inkscape:window-width="1609" inkscape:window-height="1286" id="namedview30" showgrid="true" inkscape:zoom="27.961538" inkscape:cx="3.3259971" inkscape:cy="13" inkscape:window-x="0" inkscape:window-y="37" inkscape:window-maximized="0" inkscape:document-rotation="0" inkscape:current-layer="Слой_1">
      <inkscape:grid type="xygrid" id="grid_kicad" spacingx="0.5" spacingy="0.5" color="#9999ff" opacity="0.13" empspacing="2" />
   </sodipodi:namedview>
   <metadata id="metadata43">
      <rdf:RDF>
         <cc:Work rdf:about="">
            <cc:license rdf:resource="http://creativecommons.org/licenses/by-sa/4.0/" />
            <dc:format>image/svg+xml</dc:format>
            <dc:type rdf:resource="http://purl.org/dc/dcmitype/StillImage" />
            <dc:title>add_arc</dc:title>
         </cc:Work>
         <cc:License rdf:about="http://creativecommons.org/licenses/by-sa/4.0/">
            <cc:permits rdf:resource="http://creativecommons.org/ns#Reproduction" />
            <cc:permits rdf:resource="http://creativecommons.org/ns#Distribution" />
            <cc:requires rdf:resource="http://creativecommons.org/ns#Notice" />
            <cc:requires rdf:resource="http://creativecommons.org/ns#Attribution" />
            <cc:permits rdf:resource="http://creativecommons.org/ns#DerivativeWorks" />
            <cc:requires rdf:resource="http://creativecommons.org/ns#ShareAlike" />
         </cc:License>
      </rdf:RDF>
   </metadata>
   <defs id="defs25255">
      <style id="style25253">.cls-1{fill:none;stroke:#545454;stroke-linecap:round;stroke-linejoin:round;}.cls-2{fill:#1a81c4;}.cls-3{fill:#bf2641;}.cls-4{fill:#f5f5f5;}</style>
   </defs>
   <title id="title25257">icon</title>
   <polygon class="cls-1" points="1.491,13.892 1.491,18.914 21.472,18.914 21.487,4.058 1.491,4.058 1.491,8.573 3.239,10.147 3.239,12.318 " id="polygon25259" transform="translate(-1,-1)" />
   <rect class="cls-2" x="14.0323" y="14.8554" width="4.3692002" height="6.1170001" id="rect25261" />
   <rect class="cls-2" x="2.6837001" y="14.8554" width="4.3692999" height="6.1170001" id="rect25263" />
   <rect class="cls-2" x="8.3558998" y="14.8554" width="4.3692002" height="6.1170001" id="rect25265" />
   <rect class="cls-2" x="14.0323" y="0" width="4.3692002" height="6.1169" id="rect25267" />
   <rect class="cls-2" x="2.6837001" y="0" width="4.3692999" height="6.1169" id="rect25269" />
   <rect class="cls-2" x="8.3558998" y="0" width="4.3692002" height="6.1169" id="rect25271" />
   <ellipse class="cls-3" cx="17" cy="17.008699" rx="7.0065999" ry="7" id="ellipse25273" />
   <path class="cls-4" d="m 22.6757,17.0087 c 0,0 -2.5411,3.0823 -5.6757,3.0823 -3.1346,0 -5.6757,-3.0823 -5.6757,-3.0823 0,0 2.5411,-3.0824 5.6757,-3.0824 3.1346,0 5.6757,3.0824 5.6757,3.0824 z" id="path25275" />
   <circle class="cls-3" cx="17" cy="17.008699" r="2.0999999" id="circle25277" />
   <path class="cls-4" d="m 17.97,17.0087 a 0.97,0.97 0 1 1 -0.97,-0.97 0.97,0.97 0 0 1 0.97,0.97 z" id="path25279" />
</svg>
