<?xml version="1.0" encoding="UTF-8" standalone="no"?>
<svg xmlns:dc="http://purl.org/dc/elements/1.1/"
   xmlns:cc="http://creativecommons.org/ns#"
   xmlns:rdf="http://www.w3.org/1999/02/22-rdf-syntax-ns#"
   xmlns:svg="http://www.w3.org/2000/svg"
   xmlns="http://www.w3.org/2000/svg"
   xmlns:xlink="http://www.w3.org/1999/xlink"
   xmlns:sodipodi="http://sodipodi.sourceforge.net/DTD/sodipodi-0.dtd"
   xmlns:inkscape="http://www.inkscape.org/namespaces/inkscape" height="26" width="26" version="1.1" id="svg2985" inkscape:version="0.91 r13725" sodipodi:docname="icon_cvpcb_small.svg">
   <metadata id="metadata3057">
      <rdf:RDF>
         <cc:Work rdf:about="">
            <dc:format>image/svg+xml</dc:format>
            <dc:type rdf:resource="http://purl.org/dc/dcmitype/StillImage" />
            <dc:title />
         </cc:Work>
      </rdf:RDF>
   </metadata>
   <sodipodi:namedview pagecolor="#ffffff" bordercolor="#666666" borderopacity="1" objecttolerance="10" gridtolerance="10" guidetolerance="10" inkscape:pageopacity="0" inkscape:pageshadow="2" inkscape:window-width="928" inkscape:window-height="1028" id="namedview3055" showgrid="true" inkscape:zoom="9.0892685" inkscape:cx="15.510315" inkscape:cy="11.134451" inkscape:window-x="992" inkscape:window-y="24" inkscape:window-maximized="0" inkscape:current-layer="g4924" inkscape:snap-to-guides="false" inkscape:snap-grids="false">
      <inkscape:grid type="xygrid" id="grid3325" empspacing="1" visible="true" enabled="true" snapvisiblegridlinesonly="true" spacingx="0.5px" spacingy="0.5px" />
   </sodipodi:namedview>
   <defs id="defs2987">
      <linearGradient id="aw-2">
         <stop offset="0" id="stop7-4" />
         <stop stop-opacity="0" offset="1" id="stop9-1" />
      </linearGradient>
      <linearGradient id="av-9" y2="609.51001" gradientUnits="userSpaceOnUse" x2="302.85999" gradientTransform="matrix(0.062854,0,0,0.020588,1.2826,34.451)" y1="366.64999" x1="302.85999">
         <stop stop-opacity="0" offset="0" id="stop41-8" />
         <stop offset=".5" id="stop43-5" />
         <stop stop-opacity="0" offset="1" id="stop45" />
      </linearGradient>
      <radialGradient id="ch" gradientUnits="userSpaceOnUse" cy="7.2679" cx="8.1436005" gradientTransform="matrix(0.83037,0,0,0.95552,-34.846,-1.8031)" r="38.159">
         <stop stop-color="#fff" offset="0" id="stop199" />
         <stop stop-color="#f8f8f8" offset="1" id="stop201" />
      </radialGradient>
      <radialGradient id="ci" gradientUnits="userSpaceOnUse" cy="35.737" cx="33.966999" gradientTransform="matrix(0.8327,0,0,0.97109,-37.62,-2.5748)" r="86.708">
         <stop stop-color="#fafafa" offset="0" id="stop204" />
         <stop stop-color="#bbb" offset="1" id="stop206" />
      </radialGradient>
      <radialGradient id="cj" gradientUnits="userSpaceOnUse" cy="3.7560999" cx="8.8243999" gradientTransform="matrix(0.83945,0,0,0.96329,-34.713,-1.9718)" r="37.751999">
         <stop stop-color="#a3a3a3" offset="0" id="stop209" />
         <stop stop-color="#4c4c4c" offset="1" id="stop211" />
      </radialGradient>
      <linearGradient id="aw-2-4">
         <stop offset="0" id="stop7-4-5" />
         <stop stop-opacity="0" offset="1" id="stop9-1-4" />
      </linearGradient>
      <linearGradient id="av-9-9" y2="609.51001" gradientUnits="userSpaceOnUse" x2="302.85999" gradientTransform="matrix(0.062854,0,0,0.020588,1.2826,34.451)" y1="366.64999" x1="302.85999">
         <stop stop-opacity="0" offset="0" id="stop41-8-1" />
         <stop offset=".5" id="stop43-5-7" />
         <stop stop-opacity="0" offset="1" id="stop45-2" />
      </linearGradient>
      <radialGradient id="ci-6" gradientUnits="userSpaceOnUse" cy="35.737" cx="33.966999" gradientTransform="matrix(0.8327,0,0,0.97109,-37.62,-2.5748)" r="86.708">
         <stop stop-color="#fafafa" offset="0" id="stop204-6" />
         <stop stop-color="#bbb" offset="1" id="stop206-9" />
      </radialGradient>
      <radialGradient id="cj-2" gradientUnits="userSpaceOnUse" cy="3.7560999" cx="8.8243999" gradientTransform="matrix(0.83945,0,0,0.96329,-34.713,-1.9718)" r="37.751999">
         <stop stop-color="#a3a3a3" offset="0" id="stop209-4" />
         <stop stop-color="#4c4c4c" offset="1" id="stop211-6" />
      </radialGradient>
      <radialGradient id="ch-3" gradientUnits="userSpaceOnUse" cy="7.2679" cx="8.1436005" gradientTransform="matrix(0.83037,0,0,0.95552,-34.846,-1.8031)" r="38.159">
         <stop stop-color="#fff" offset="0" id="stop199-9" />
         <stop stop-color="#f8f8f8" offset="1" id="stop201-8" />
      </radialGradient>
      <radialGradient inkscape:collect="always" xlink:href="#ch-3" id="radialGradient3567" gradientUnits="userSpaceOnUse" gradientTransform="matrix(0.4234664,0,0,0.4027024,5.3851975,0.98009383)" cx="8.1436005" cy="7.2679" r="38.159" />
      <radialGradient inkscape:collect="always" xlink:href="#ci-6" id="radialGradient3570" gradientUnits="userSpaceOnUse" gradientTransform="matrix(0.42870087,0,0,0.4092114,3.8035692,0.60107323)" cx="33.966999" cy="35.737" r="86.708" />
      <radialGradient inkscape:collect="always" xlink:href="#cj-2" id="radialGradient3572" gradientUnits="userSpaceOnUse" gradientTransform="matrix(0.43217599,0,0,0.40592453,5.3001863,0.85517431)" cx="8.8243999" cy="3.7560999" r="37.751999" />
      <radialGradient inkscape:collect="always" xlink:href="#ci-6" id="radialGradient4965" gradientUnits="userSpaceOnUse" gradientTransform="matrix(0.42870087,0,0,0.4092114,-3.1436041,-19.062424)" cx="33.966999" cy="35.737" r="86.708" />
      <radialGradient inkscape:collect="always" xlink:href="#cj-2" id="radialGradient4967" gradientUnits="userSpaceOnUse" gradientTransform="matrix(0.43217599,0,0,0.40592453,-1.646987,-18.808323)" cx="8.8243999" cy="3.7560999" r="37.751999" />
      <radialGradient inkscape:collect="always" xlink:href="#ch-3" id="radialGradient4969" gradientUnits="userSpaceOnUse" gradientTransform="matrix(0.4234664,0,0,0.4027024,-1.4662555,-18.715623)" cx="8.1436005" cy="7.2679" r="38.159" />
   </defs>
   <g id="g3257" transform="matrix(0.5853476,0,0,0.53794398,-79.024171,23.848224)">
      <rect y="6.5" x="1" height="13.000002" width="24.000004" id="rect3926" style="fill:none;stroke:#333333;stroke-width:2;stroke-linecap:square;stroke-linejoin:round;stroke-miterlimit:4;stroke-opacity:1;stroke-dasharray:none" />
      <path sodipodi:nodetypes="cccc" inkscape:connector-curvature="0" id="path3928" d="m 1,11 3.5,0 0,4 -3.5,0" style="fill:none;stroke:#333333;stroke-width:2;stroke-linecap:butt;stroke-linejoin:round;stroke-miterlimit:4;stroke-opacity:1;stroke-dasharray:none" />
      <rect ry="0.5" rx="0.5" y="0" x="2" height="4" width="4" id="rect3820" style="fill:#d45500;fill-opacity:1;stroke:none" />
      <rect style="fill:#d45500;fill-opacity:1;stroke:none" id="rect3822" width="4" height="4" x="20" y="0" rx="0.5" ry="0.5" />
      <rect ry="0.5" rx="0.5" y="0" x="14" height="4" width="4" id="rect3824" style="fill:#d45500;fill-opacity:1;stroke:none" />
      <rect style="fill:#d45500;fill-opacity:1;stroke:none" id="rect3826" width="4" height="4" x="8" y="0" rx="0.5" ry="0.5" />
      <rect style="fill:#d45500;fill-opacity:1;stroke:none" id="rect3828" width="4" height="4" x="2" y="22" rx="0.5" ry="0.5" />
      <rect ry="0.5" rx="0.5" y="22" x="20" height="4" width="4" id="rect3830" style="fill:#d45500;fill-opacity:1;stroke:none" />
      <rect style="fill:#d45500;fill-opacity:1;stroke:none" id="rect3832" width="4" height="4" x="14" y="22" rx="0.5" ry="0.5" />
      <rect ry="0.5" rx="0.5" y="22" x="8" height="4" width="4" id="rect3834" style="fill:#d45500;fill-opacity:1;stroke:none" />
   </g>
   <rect style="color:#000000;stroke:#000000;stroke-width:0.7119" height="0.72042" width="0" y="1.4277763" x="-24.303911" id="rect23" />
   <g transform="matrix(-0.03941291,0.1661388,0.17012966,0.04763325,-10.289297,-5.818375)" id="g27">
      <g transform="matrix(-0.84925,-0.56427,0.49404,-0.84925,120.46108,338.80818)" id="g29" />
   </g>
   <g id="g4286" transform="matrix(0.83930489,0,0,-0.86642568,-100.01845,25.177313)">
      <path style="fill:#fafafa;fill-opacity:1;stroke:#000000;stroke-width:1.0914079;stroke-linecap:butt;stroke-linejoin:round;stroke-miterlimit:4;stroke-opacity:1;stroke-dasharray:none" d="M 31,19.972938 31,4.9999998 43.834866,12.486469 z" id="path3921" inkscape:connector-curvature="0" sodipodi:nodetypes="cccc" />
      <path style="fill:#f0f0f0;fill-opacity:1;stroke:#000000;stroke-width:0.87312639;stroke-linecap:round;stroke-linejoin:miter;stroke-miterlimit:4;stroke-opacity:1;stroke-dasharray:none" d="m 32.944676,14.528233 3.500418,0" id="path3923" inkscape:connector-curvature="0" sodipodi:nodetypes="cc" />
      <path sodipodi:nodetypes="cc" inkscape:connector-curvature="0" id="path3925" d="m 32.944676,10.784999 3.500418,0" style="fill:#f0f0f0;fill-opacity:1;stroke:#000000;stroke-width:0.87312639;stroke-linecap:round;stroke-linejoin:miter;stroke-miterlimit:4;stroke-opacity:1;stroke-dasharray:none" />
      <path style="fill:#f0f0f0;fill-opacity:1;stroke:#000000;stroke-width:1.0914079;stroke-linecap:round;stroke-linejoin:miter;stroke-miterlimit:4;stroke-opacity:1;stroke-dasharray:none" d="m 43.834866,12.486469 2.722546,0" id="path3927" inkscape:connector-curvature="0" sodipodi:nodetypes="cc" />
      <path style="fill:#f0f0f0;fill-opacity:1;stroke:#000000;stroke-width:1.0914079;stroke-linecap:round;stroke-linejoin:miter;stroke-miterlimit:4;stroke-opacity:1;stroke-dasharray:none" d="m 31,15.208821 -3.111483,0" id="path3929" inkscape:connector-curvature="0" sodipodi:nodetypes="cc" />
      <path style="fill:#f0f0f0;fill-opacity:1;stroke:#000000;stroke-width:1.0914079;stroke-linecap:round;stroke-linejoin:miter;stroke-miterlimit:4;stroke-opacity:1;stroke-dasharray:none" d="m 31,9.7641166 -3.111483,0" id="path3931" inkscape:connector-curvature="0" sodipodi:nodetypes="cc" />
      <path style="fill:#f0f0f0;fill-opacity:1;stroke:#000000;stroke-width:0.87312639;stroke-linecap:round;stroke-linejoin:miter;stroke-miterlimit:4;stroke-opacity:1;stroke-dasharray:none" d="m 34.694885,12.316322 0,-3.0626465" id="path3933" inkscape:connector-curvature="0" sodipodi:nodetypes="cc" />
   </g>
   <rect style="opacity:0.8048782;fill:none;stroke:#f4972b;stroke-width:0.9672913;stroke-opacity:0.98431373" id="rect2962" width="25.049658" height="25.019873" x="-120.30598" y="1.3000178" ry="2.245373" />
   <rect style="fill:#f2f2f2;fill-opacity:1;stroke:none" id="rect3018" width="22.004204" height="22.076113" x="-118.78465" y="2.7732882" ry="1.0426829" />
   <g id="g3175" transform="matrix(0.90161012,0,0,0.90161012,-89.204276,-20.160903)">
      <g id="g3191-2" transform="matrix(0.85303943,0,0,0.85303943,-24.298581,21.410598)">
         <path sodipodi:nodetypes="cccc" inkscape:connector-curvature="0" id="path3921-4" d="m -6.7662586,5.5550885 0,16.0416675 12.0312503,-8.020834 z" style="fill:#fafafa;fill-opacity:1;stroke:#800000;stroke-width:1.09375;stroke-linecap:butt;stroke-linejoin:round;stroke-miterlimit:4;stroke-opacity:1;stroke-dasharray:none" />
         <path sodipodi:nodetypes="cc" inkscape:connector-curvature="0" id="path3923-8" d="m -4.9433423,11.388422 3.28125,0" style="fill:#f0f0f0;fill-opacity:1;stroke:#800000;stroke-width:0.87500006;stroke-linecap:round;stroke-linejoin:miter;stroke-miterlimit:4;stroke-opacity:1;stroke-dasharray:none" />
         <path style="fill:#f0f0f0;fill-opacity:1;stroke:#800000;stroke-width:0.87500006;stroke-linecap:round;stroke-linejoin:miter;stroke-miterlimit:4;stroke-opacity:1;stroke-dasharray:none" d="m -4.9433423,15.398839 3.28125,0" id="path3925-58" inkscape:connector-curvature="0" sodipodi:nodetypes="cc" />
         <path sodipodi:nodetypes="cc" inkscape:connector-curvature="0" id="path3927-5" d="m 5.2649917,13.575922 2.552083,0" style="fill:#f0f0f0;fill-opacity:1;stroke:#800000;stroke-width:1.09375;stroke-linecap:round;stroke-linejoin:miter;stroke-miterlimit:4;stroke-opacity:1;stroke-dasharray:none" />
         <path sodipodi:nodetypes="cc" inkscape:connector-curvature="0" id="path3929-0" d="m -6.7662586,10.659256 -2.9166667,0" style="fill:#f0f0f0;fill-opacity:1;stroke:#800000;stroke-width:1.09375;stroke-linecap:round;stroke-linejoin:miter;stroke-miterlimit:4;stroke-opacity:1;stroke-dasharray:none" />
         <path sodipodi:nodetypes="cc" inkscape:connector-curvature="0" id="path3931-0" d="m -6.7662586,16.492589 -2.9166667,0" style="fill:#f0f0f0;fill-opacity:1;stroke:#800000;stroke-width:1.09375;stroke-linecap:round;stroke-linejoin:miter;stroke-miterlimit:4;stroke-opacity:1;stroke-dasharray:none" />
         <path sodipodi:nodetypes="cc" inkscape:connector-curvature="0" id="path3933-3" d="m -3.3027173,13.758214 0,3.28125" style="fill:#f0f0f0;fill-opacity:1;stroke:#800000;stroke-width:0.87500006;stroke-linecap:round;stroke-linejoin:miter;stroke-miterlimit:4;stroke-opacity:1;stroke-dasharray:none" />
      </g>
   </g>
   <g id="g3257-4" transform="matrix(0.49663588,0,0,0.49663588,-109.56472,12.137037)">
      <rect y="6.5" x="1" height="13.000002" width="24.000004" id="rect3926-85" style="fill:none;stroke:#333333;stroke-width:2;stroke-linecap:square;stroke-linejoin:round;stroke-miterlimit:4;stroke-opacity:1;stroke-dasharray:none" />
      <path sodipodi:nodetypes="cccc" inkscape:connector-curvature="0" id="path3928-9" d="m 1,11 3.5,0 0,4 -3.5,0" style="fill:none;stroke:#333333;stroke-width:2;stroke-linecap:butt;stroke-linejoin:round;stroke-miterlimit:4;stroke-opacity:1;stroke-dasharray:none" />
      <rect ry="0.5" rx="0.5" y="0" x="2" height="4" width="4" id="rect3820-5" style="fill:#d45500;fill-opacity:1;stroke:none" />
      <rect style="fill:#d45500;fill-opacity:1;stroke:none" id="rect3822-6" width="4" height="4" x="20" y="0" rx="0.5" ry="0.5" />
      <rect ry="0.5" rx="0.5" y="0" x="14" height="4" width="4" id="rect3824-4" style="fill:#d45500;fill-opacity:1;stroke:none" />
      <rect style="fill:#d45500;fill-opacity:1;stroke:none" id="rect3826-5" width="4" height="4" x="8" y="0" rx="0.5" ry="0.5" />
      <rect style="fill:#d45500;fill-opacity:1;stroke:none" id="rect3828-0" width="4" height="4" x="2" y="22" rx="0.5" ry="0.5" />
      <rect ry="0.5" rx="0.5" y="22" x="20" height="4" width="4" id="rect3830-78" style="fill:#d45500;fill-opacity:1;stroke:none" />
      <rect style="fill:#d45500;fill-opacity:1;stroke:none" id="rect3832-8" width="4" height="4" x="14" y="22" rx="0.5" ry="0.5" />
      <rect ry="0.5" rx="0.5" y="22" x="8" height="4" width="4" id="rect3834-4" style="fill:#d45500;fill-opacity:1;stroke:none" />
   </g>
   <g id="g4924" transform="translate(-0.62236628,1.0113452)">
      <g id="g5013">
         <rect style="color:#000000;display:block;fill:url(#radialGradient4965);stroke:url(#radialGradient4967);stroke-width:0.419;stroke-linecap:round;stroke-linejoin:round;stroke-miterlimit:4;stroke-dasharray:none" display="block" transform="matrix(0,1,-1,0,0,0)" ry="0.45165002" width="15.565955" y="-17.629181" x="-0.19619006" height="16.083763" id="rect4941" />
         <rect style="color:#000000;display:block;fill:none;stroke:url(#radialGradient4969);stroke-width:0.41295403;stroke-linecap:round;stroke-linejoin:round" transform="matrix(0,1,-1,0,0,0)" display="block" rx="0.065184765" ry="0.058117732" height="15.186052" width="14.334325" y="-17.180326" x="0.4196251" id="rect4943" />
         <g transform="matrix(1.1176923,0,0,1.1176923,-3.5895997,6.3412914)" id="g5003">
            <path style="color:#000000;clip-rule:nonzero;display:inline;overflow:visible;visibility:visible;opacity:1;isolation:auto;mix-blend-mode:normal;color-interpolation:sRGB;color-interpolation-filters:linearRGB;solid-color:#000000;solid-opacity:1;fill:#f3e5c5;fill-opacity:1;fill-rule:nonzero;stroke:#a00000;stroke-width:0.67588168;stroke-linecap:round;stroke-linejoin:round;stroke-miterlimit:4;stroke-dasharray:none;stroke-dashoffset:0;stroke-opacity:1;color-rendering:auto;image-rendering:auto;shape-rendering:auto;text-rendering:auto;enable-background:accumulate" d="m 8.2873714,-4.0665552 0,10.3618028 7.6587236,-5.1809009 z" id="path2990" inkscape:connector-curvature="0" sodipodi:nodetypes="cccc" />
            <path style="color:#000000;clip-rule:nonzero;display:inline;overflow:visible;visibility:visible;opacity:1;isolation:auto;mix-blend-mode:normal;color-interpolation:sRGB;color-interpolation-filters:linearRGB;solid-color:#000000;solid-opacity:1;fill:#d3be59;fill-opacity:0.23137255;fill-rule:nonzero;stroke:#a00000;stroke-width:0.53556389;stroke-linecap:round;stroke-linejoin:round;stroke-miterlimit:4;stroke-dasharray:none;stroke-dashoffset:0;stroke-opacity:1;color-rendering:auto;image-rendering:auto;shape-rendering:auto;text-rendering:auto;enable-background:accumulate" d="m 9.382886,-0.58897298 1.543597,0" id="path3760" inkscape:connector-curvature="0" sodipodi:nodetypes="cc" />
            <path sodipodi:nodetypes="cc" inkscape:connector-curvature="0" id="path3762" d="m 9.382886,2.6413985 1.543597,0" style="color:#000000;clip-rule:nonzero;display:inline;overflow:visible;visibility:visible;opacity:1;isolation:auto;mix-blend-mode:normal;color-interpolation:sRGB;color-interpolation-filters:linearRGB;solid-color:#000000;solid-opacity:1;fill:#d3be59;fill-opacity:0.23137255;fill-rule:nonzero;stroke:#a00000;stroke-width:0.53556389;stroke-linecap:round;stroke-linejoin:round;stroke-miterlimit:4;stroke-dasharray:none;stroke-dashoffset:0;stroke-opacity:1;color-rendering:auto;image-rendering:auto;shape-rendering:auto;text-rendering:auto;enable-background:accumulate" />
            <path style="color:#000000;clip-rule:nonzero;display:inline;overflow:visible;visibility:visible;opacity:1;isolation:auto;mix-blend-mode:normal;color-interpolation:sRGB;color-interpolation-filters:linearRGB;solid-color:#000000;solid-opacity:1;fill:#d3be59;fill-opacity:0.23137255;fill-rule:nonzero;stroke:#a00000;stroke-width:0.67588168;stroke-linecap:round;stroke-linejoin:round;stroke-miterlimit:4;stroke-dasharray:none;stroke-dashoffset:0;stroke-opacity:1;color-rendering:auto;image-rendering:auto;shape-rendering:auto;text-rendering:auto;enable-background:accumulate" d="m 15.946095,1.1143467 1.576795,0" id="path3766" inkscape:connector-curvature="0" sodipodi:nodetypes="cc" />
            <g style="color:#000000;clip-rule:nonzero;display:inline;overflow:visible;visibility:visible;opacity:1;isolation:auto;mix-blend-mode:normal;color-interpolation:sRGB;color-interpolation-filters:linearRGB;solid-color:#000000;solid-opacity:1;fill:#d3be59;fill-opacity:0.23137255;fill-rule:nonzero;stroke:#a00000;stroke-width:1.50024843;stroke-linecap:round;stroke-linejoin:round;stroke-miterlimit:4;stroke-dasharray:none;stroke-dashoffset:0;stroke-opacity:1;color-rendering:auto;image-rendering:auto;shape-rendering:auto;text-rendering:auto;enable-background:accumulate" id="g4938" transform="matrix(0.45051315,0,0,0.45051315,6.2600624,-5.4264662)">
               <path sodipodi:nodetypes="cc" inkscape:connector-curvature="0" id="path3768" d="M 4.5,9 -0.45323882,9" style="color:#000000;clip-rule:nonzero;display:inline;overflow:visible;visibility:visible;isolation:auto;mix-blend-mode:normal;color-interpolation:sRGB;color-interpolation-filters:linearRGB;solid-color:#000000;solid-opacity:1;fill:#d3be59;fill-opacity:0.23137255;fill-rule:nonzero;stroke:#a00000;stroke-width:1.50024843;stroke-linecap:round;stroke-linejoin:round;stroke-miterlimit:4;stroke-dasharray:none;stroke-dashoffset:0;stroke-opacity:1;color-rendering:auto;image-rendering:auto;shape-rendering:auto;text-rendering:auto;enable-background:accumulate" />
               <path sodipodi:nodetypes="cc" inkscape:connector-curvature="0" id="path3770" d="m 4.5,20.037168 -4.95323882,0" style="color:#000000;clip-rule:nonzero;display:inline;overflow:visible;visibility:visible;isolation:auto;mix-blend-mode:normal;color-interpolation:sRGB;color-interpolation-filters:linearRGB;solid-color:#000000;solid-opacity:1;fill:#d3be59;fill-opacity:0.23137255;fill-rule:nonzero;stroke:#a00000;stroke-width:1.50024843;stroke-linecap:round;stroke-linejoin:round;stroke-miterlimit:4;stroke-dasharray:none;stroke-dashoffset:0;stroke-opacity:1;color-rendering:auto;image-rendering:auto;shape-rendering:auto;text-rendering:auto;enable-background:accumulate" />
            </g>
            <path style="color:#000000;clip-rule:nonzero;display:inline;overflow:visible;visibility:visible;opacity:1;isolation:auto;mix-blend-mode:normal;color-interpolation:sRGB;color-interpolation-filters:linearRGB;solid-color:#000000;solid-opacity:1;fill:#d3be59;fill-opacity:0.23137255;fill-rule:nonzero;stroke:#a00000;stroke-width:0.53556389;stroke-linecap:round;stroke-linejoin:round;stroke-miterlimit:4;stroke-dasharray:none;stroke-dashoffset:0;stroke-opacity:1;color-rendering:auto;image-rendering:auto;shape-rendering:auto;text-rendering:auto;enable-background:accumulate" d="m 10.154685,1.8695995 0,1.5435974" id="path3813" inkscape:connector-curvature="0" sodipodi:nodetypes="cc" />
         </g>
      </g>
      <g transform="translate(27.864274,2.0172665)" id="g4419">
         <rect id="rect4051-9" height="16.083763" x="6.7509832" y="2.0343146" width="15.565955" ry="0.45165002" transform="matrix(0,1,-1,0,0,0)" display="block" style="color:#000000;display:block;fill:url(#radialGradient3570);stroke:url(#radialGradient3572);stroke-width:0.419;stroke-linecap:round;stroke-linejoin:round;stroke-miterlimit:4;stroke-dasharray:none" />
         <rect id="rect4053-4" x="7.2710781" y="2.5153897" width="14.334325" height="15.186052" ry="0.058117732" rx="0.065184765" display="block" transform="matrix(0,1,-1,0,0,0)" style="color:#000000;display:block;fill:none;stroke:url(#radialGradient3567);stroke-width:0.41295403;stroke-linecap:round;stroke-linejoin:round" />
         <g style="stroke-width:0.97652286;stroke-miterlimit:4;stroke-dasharray:none" id="g4164" transform="matrix(0.4658996,0,0,0.4658996,-16.1879,8.2235308)">
            <path style="fill:#e6e6e6;stroke:#545454;stroke-width:0.97652286;stroke-linejoin:round;stroke-miterlimit:4;stroke-dasharray:none;stroke-opacity:1" d="m 1.5380859,6.5039062 0,4.6249998 a 2.2240581,1.9589449 0 0 1 0,3.822266 l 0,5.642578 22.9238281,0 0,-14.0898438 -22.9238281,0 z" id="rect51" inkscape:connector-curvature="0" />
            <g style="stroke-width:0.97652286;stroke-miterlimit:4;stroke-dasharray:none" id="g3983" transform="translate(-0.53360319,0)">
               <rect id="rect73" x="-8.5317764" y="4.5123401" width="6.0590835" height="4.0659709" transform="matrix(0,-1,1,0,0,0)" style="fill:#00c921;fill-opacity:1;stroke:#545454;stroke-width:0.97652286;stroke-linejoin:round;stroke-miterlimit:4;stroke-dasharray:none;stroke-opacity:1" />
               <rect id="rect73-5" x="-8.5076618" y="11.451617" width="6.0590835" height="4.0659709" transform="matrix(0,-1,1,0,0,0)" style="fill:#00c921;fill-opacity:1;stroke:#545454;stroke-width:0.97652286;stroke-linejoin:round;stroke-miterlimit:4;stroke-dasharray:none;stroke-opacity:1" />
               <rect id="rect73-56" x="-8.5498009" y="18.488895" width="6.0590835" height="4.0659709" transform="matrix(0,-1,1,0,0,0)" style="fill:#00c921;fill-opacity:1;stroke:#545454;stroke-width:0.97652286;stroke-linejoin:round;stroke-miterlimit:4;stroke-dasharray:none;stroke-opacity:1" />
            </g>
            <g style="stroke-width:0.97652286;stroke-miterlimit:4;stroke-dasharray:none" transform="translate(-0.53360319,16.090848)" id="g3983-1">
               <rect id="rect73-0" x="-8.5317764" y="4.5123401" width="6.0590835" height="4.0659709" transform="matrix(0,-1,1,0,0,0)" style="fill:#00c921;fill-opacity:1;stroke:#545454;stroke-width:0.97652286;stroke-linejoin:round;stroke-miterlimit:4;stroke-dasharray:none;stroke-opacity:1" />
               <rect id="rect73-5-4" x="-8.5076618" y="11.451617" width="6.0590835" height="4.0659709" transform="matrix(0,-1,1,0,0,0)" style="fill:#00c921;fill-opacity:1;stroke:#545454;stroke-width:0.97652286;stroke-linejoin:round;stroke-miterlimit:4;stroke-dasharray:none;stroke-opacity:1" />
               <rect id="rect73-56-9" x="-8.5498009" y="18.488895" width="6.0590835" height="4.0659709" transform="matrix(0,-1,1,0,0,0)" style="fill:#00c921;fill-opacity:1;stroke:#545454;stroke-width:0.97652286;stroke-linejoin:round;stroke-miterlimit:4;stroke-dasharray:none;stroke-opacity:1" />
            </g>
         </g>
      </g>
   </g>
</svg>
