<?xml version="1.0" encoding="UTF-8" standalone="no"?>
<svg xmlns:dc="http://purl.org/dc/elements/1.1/"
   xmlns:cc="http://creativecommons.org/ns#"
   xmlns:rdf="http://www.w3.org/1999/02/22-rdf-syntax-ns#"
   xmlns:svg="http://www.w3.org/2000/svg"
   xmlns="http://www.w3.org/2000/svg"
   xmlns:sodipodi="http://sodipodi.sourceforge.net/DTD/sodipodi-0.dtd"
   xmlns:inkscape="http://www.inkscape.org/namespaces/inkscape" id="Слой_1" data-name="Слой 1" viewBox="0 0 24 24" version="1.1" sodipodi:docname="import3d.svg" inkscape:version="1.0.1 (3bc2e813f5, 2020-09-07)">
   <sodipodi:namedview pagecolor="#ffffff" bordercolor="#666666" borderopacity="1" objecttolerance="10" gridtolerance="10" guidetolerance="10" inkscape:pageopacity="0" inkscape:pageshadow="2" inkscape:window-width="1609" inkscape:window-height="1286" id="namedview30" showgrid="true" inkscape:zoom="27.961538" inkscape:cx="3.3259971" inkscape:cy="13" inkscape:window-x="0" inkscape:window-y="37" inkscape:window-maximized="0" inkscape:document-rotation="0" inkscape:current-layer="Слой_1">
      <inkscape:grid type="xygrid" id="grid_kicad" spacingx="0.5" spacingy="0.5" color="#9999ff" opacity="0.13" empspacing="2" />
   </sodipodi:namedview>
   <metadata id="metadata43">
      <rdf:RDF>
         <cc:Work rdf:about="">
            <cc:license rdf:resource="http://creativecommons.org/licenses/by-sa/4.0/" />
            <dc:format>image/svg+xml</dc:format>
            <dc:type rdf:resource="http://purl.org/dc/dcmitype/StillImage" />
            <dc:title>add_arc</dc:title>
         </cc:Work>
         <cc:License rdf:about="http://creativecommons.org/licenses/by-sa/4.0/">
            <cc:permits rdf:resource="http://creativecommons.org/ns#Reproduction" />
            <cc:permits rdf:resource="http://creativecommons.org/ns#Distribution" />
            <cc:requires rdf:resource="http://creativecommons.org/ns#Notice" />
            <cc:requires rdf:resource="http://creativecommons.org/ns#Attribution" />
            <cc:permits rdf:resource="http://creativecommons.org/ns#DerivativeWorks" />
            <cc:requires rdf:resource="http://creativecommons.org/ns#ShareAlike" />
         </cc:License>
      </rdf:RDF>
   </metadata>
   <defs id="defs157793">
      <style id="style157791">.cls-1,.cls-7{fill:none;stroke-linecap:round;stroke-linejoin:round;}.cls-1{stroke:#b9b9b9;}.cls-2{fill:#333;}.cls-3{fill:#545454;}.cls-4{fill:#686868;}.cls-5{fill:#1a81c4;}.cls-6{fill:#bf2641;}.cls-7{stroke:#f5f5f5;stroke-width:2px;}</style>
   </defs>
   <title id="title157795">import3d</title>
   <line class="cls-1" x1="5.1465998" y1="16.841299" x2="5.1465998" y2="23.3456" id="line157797" />
   <line class="cls-1" x1="11.614" y1="16.841299" x2="11.614" y2="23.3456" id="line157799" />
   <rect class="cls-2" x="1.0074999" y="1.6542001" width="14.0805" height="10.0092" id="rect157801" />
   <polygon class="cls-3" points="2.007,2.654 3.058,0.98 15.038,0.98 16.088,2.654 " id="polygon157803" transform="translate(-1,-1)" />
   <polygon class="cls-4" points="16.088,12.663 15.038,14.337 3.058,14.337 2.007,12.663 " id="polygon157805" transform="translate(-1,-1)" />
   <polygon class="cls-3" points="2.007,15.997 3.058,14.324 15.038,14.324 16.088,15.997 " id="polygon157807" transform="translate(-1,-1)" />
   <rect class="cls-2" x="1.0074999" y="14.9974" width="14.0805" height="2.0009" id="rect157809" />
   <rect class="cls-5" x="-0.0062000155" y="18.011" width="22.3253" height="1.9814" id="rect157811" />
   <path class="cls-6" d="m 24.0057,16.9993 a 7.0065,7.0065 0 1 1 -7.0066,-7 7.0032,7.0032 0 0 1 7.0066,7 z" id="path157813" />
   <line class="cls-7" x1="17.1031" y1="20.4111" x2="17.1031" y2="13.4111" id="line157815" />
   <polyline class="cls-7" points="20.858 18.878 18.103 21.63 15.348 18.878" id="polyline157817" transform="translate(-1,-1)" />
</svg>
