<?xml version="1.0" encoding="UTF-8" standalone="no"?>
<svg xmlns:dc="http://purl.org/dc/elements/1.1/"
   xmlns:cc="http://creativecommons.org/ns#"
   xmlns:rdf="http://www.w3.org/1999/02/22-rdf-syntax-ns#"
   xmlns:svg="http://www.w3.org/2000/svg"
   xmlns="http://www.w3.org/2000/svg"
   xmlns:sodipodi="http://sodipodi.sourceforge.net/DTD/sodipodi-0.dtd"
   xmlns:inkscape="http://www.inkscape.org/namespaces/inkscape" id="Слой_1" data-name="Слой 1" viewBox="0 0 24 24" version="1.1" sodipodi:docname="paste.svg" inkscape:version="1.0.1 (3bc2e813f5, 2020-09-07)">
   <sodipodi:namedview pagecolor="#ffffff" bordercolor="#666666" borderopacity="1" objecttolerance="10" gridtolerance="10" guidetolerance="10" inkscape:pageopacity="0" inkscape:pageshadow="2" inkscape:window-width="1609" inkscape:window-height="1286" id="namedview30" showgrid="true" inkscape:zoom="11.313708" inkscape:cx="1.4807715" inkscape:cy="9.1983316" inkscape:window-x="0" inkscape:window-y="37" inkscape:window-maximized="0" inkscape:document-rotation="0" inkscape:current-layer="Слой_1">
      <inkscape:grid type="xygrid" id="grid_kicad" spacingx="0.5" spacingy="0.5" color="#9999ff" opacity="0.13" empspacing="2" />
   </sodipodi:namedview>
   <metadata id="metadata43">
      <rdf:RDF>
         <cc:Work rdf:about="">
            <cc:license rdf:resource="http://creativecommons.org/licenses/by-sa/4.0/" />
            <dc:format>image/svg+xml</dc:format>
            <dc:type rdf:resource="http://purl.org/dc/dcmitype/StillImage" />
            <dc:title>add_arc</dc:title>
         </cc:Work>
         <cc:License rdf:about="http://creativecommons.org/licenses/by-sa/4.0/">
            <cc:permits rdf:resource="http://creativecommons.org/ns#Reproduction" />
            <cc:permits rdf:resource="http://creativecommons.org/ns#Distribution" />
            <cc:requires rdf:resource="http://creativecommons.org/ns#Notice" />
            <cc:requires rdf:resource="http://creativecommons.org/ns#Attribution" />
            <cc:permits rdf:resource="http://creativecommons.org/ns#DerivativeWorks" />
            <cc:requires rdf:resource="http://creativecommons.org/ns#ShareAlike" />
         </cc:License>
      </rdf:RDF>
   </metadata>
   <defs id="defs158893">
      <style id="style158891">.cls-1{fill:#686868;}.cls-2{fill:#b9b9b9;}.cls-3{fill:#bf2641;}.cls-4{fill:#fff;}.cls-5{fill:#545454;}</style>
   </defs>
   <title id="title158895">paste</title>
   <path class="cls-1" d="M 7.4837,2.1366 V 0.5017 a 0.5,0.5 0 0 1 0.5,-0.5 h 2 a 0.5,0.5 0 0 1 0.5,0.5 v 1.6466 z" id="path158897" />
   <path class="cls-2" d="m 3.493,1.9983 h 10.9816 a 3.4978,3.4978 0 0 1 3.4978,3.4978 v 12.0013 a 3.4978,3.4978 0 0 1 -3.4978,3.4978 H 3.4929 A 3.4978,3.4978 0 0 1 -0.0049,17.4974 V 5.4962 A 3.4979,3.4979 0 0 1 3.493,1.9983 Z" id="path158899" />
   <ellipse class="cls-3" cx="16.998301" cy="16.998301" rx="7.0064998" ry="7" id="ellipse158901" />
   <path class="cls-4" d="m 19.9059,12.7822 h -5.815 a 1.4548,1.4548 0 0 0 -1.4546,1.4548 v 5.823 a 1.4548,1.4548 0 0 0 1.4546,1.4547 h 5.8147 A 1.4547,1.4547 0 0 0 21.36,20.06 v -5.823 a 1.4548,1.4548 0 0 0 -1.4541,-1.4548 z m -2.3418,7.4689 h -2.9766 a 0.4159,0.4159 0 0 1 0,-0.8318 h 2.9766 a 0.4159,0.4159 0 0 1 0,0.8318 z m 2,-1.7273 h -4.9766 a 0.4159,0.4159 0 0 1 0,-0.8318 h 4.9766 a 0.4159,0.4159 0 0 1 0,0.8318 z m 0,-1.7269 h -4.9766 a 0.4159,0.4159 0 0 1 0,-0.8318 h 4.9766 a 0.4159,0.4159 0 0 1 0,0.8318 z m 0,-1.7273 h -4.9766 a 0.4159,0.4159 0 0 1 0,-0.8318 h 4.9766 a 0.4159,0.4159 0 0 1 0,0.8318 z" id="path158903" />
   <path class="cls-5" d="m 6.2357,0.9983 h 5.4961 a 1.2641,1.2641 0 0 1 1.2641,1.2641 v 1 A 1.2641,1.2641 0 0 1 11.7318,4.5265 H 6.2356 A 1.2641,1.2641 0 0 1 4.9715,3.2625 v -1 A 1.2642,1.2642 0 0 1 6.2357,0.9983 Z" id="path158905" />
</svg>
