<?xml version="1.0" encoding="UTF-8" standalone="no"?>
<svg xmlns:dc="http://purl.org/dc/elements/1.1/"
   xmlns:cc="http://creativecommons.org/ns#"
   xmlns:rdf="http://www.w3.org/1999/02/22-rdf-syntax-ns#"
   xmlns:svg="http://www.w3.org/2000/svg"
   xmlns="http://www.w3.org/2000/svg"
   xmlns:sodipodi="http://sodipodi.sourceforge.net/DTD/sodipodi-0.dtd"
   xmlns:inkscape="http://www.inkscape.org/namespaces/inkscape" id="Слой_1" data-name="Слой 1" viewBox="0 0 24 24" version="1.1" sodipodi:docname="post_gerber.svg" inkscape:version="1.0.1 (3bc2e813f5, 2020-09-07)">
   <sodipodi:namedview pagecolor="#ffffff" bordercolor="#666666" borderopacity="1" objecttolerance="10" gridtolerance="10" guidetolerance="10" inkscape:pageopacity="0" inkscape:pageshadow="2" inkscape:window-width="1609" inkscape:window-height="1286" id="namedview30" showgrid="true" inkscape:zoom="27.961538" inkscape:cx="3.3259971" inkscape:cy="13" inkscape:window-x="0" inkscape:window-y="37" inkscape:window-maximized="0" inkscape:document-rotation="0" inkscape:current-layer="Слой_1">
      <inkscape:grid type="xygrid" id="grid_kicad" spacingx="0.5" spacingy="0.5" color="#9999ff" opacity="0.13" empspacing="2" />
   </sodipodi:namedview>
   <metadata id="metadata43">
      <rdf:RDF>
         <cc:Work rdf:about="">
            <cc:license rdf:resource="http://creativecommons.org/licenses/by-sa/4.0/" />
            <dc:format>image/svg+xml</dc:format>
            <dc:type rdf:resource="http://purl.org/dc/dcmitype/StillImage" />
            <dc:title>add_arc</dc:title>
         </cc:Work>
         <cc:License rdf:about="http://creativecommons.org/licenses/by-sa/4.0/">
            <cc:permits rdf:resource="http://creativecommons.org/ns#Reproduction" />
            <cc:permits rdf:resource="http://creativecommons.org/ns#Distribution" />
            <cc:requires rdf:resource="http://creativecommons.org/ns#Notice" />
            <cc:requires rdf:resource="http://creativecommons.org/ns#Attribution" />
            <cc:permits rdf:resource="http://creativecommons.org/ns#DerivativeWorks" />
            <cc:requires rdf:resource="http://creativecommons.org/ns#ShareAlike" />
         </cc:License>
      </rdf:RDF>
   </metadata>
   <defs id="defs26639">
      <style id="style26637">.cls-1{fill:#b9b9b9;}.cls-2{fill:#1a81c4;}.cls-3{fill:#fff;}.cls-4{fill:#bf2641;}.cls-5{fill:none;stroke:#f5f5f5;stroke-linecap:round;stroke-linejoin:round;stroke-width:2px;}</style>
   </defs>
   <title id="title26641">post_gerber</title>
   <rect class="cls-1" x="3.0489998" y="0" width="17.937201" height="17.983299" rx="2.9934001" id="rect26643" />
   <rect class="cls-2" x="-0.00040000677" y="3.0005999" width="18.709999" height="9.2299004" id="rect26645" />
   <path class="cls-3" d="M 2.0688,9.9375 H 0.9955 V 8.9014 h 1.0733 z" id="path26647" />
   <path class="cls-3" d="M 3.225,7.5986 A 3.1315,3.1315 0 0 1 3.727,5.7451 1.61,1.61 0 0 1 5.1186,5.0381 1.5107,1.5107 0 0 1 5.8754,5.2227 1.5974,1.5974 0 0 1 6.4272,5.7539 L 6.5336,5.127 h 0.8955 v 4.8105 a 1.8154,1.8154 0 0 1 -0.5723,1.4355 2.366,2.366 0 0 1 -1.623,0.5069 3.1825,3.1825 0 0 1 -0.7559,-0.1 3.5012,3.5012 0 0 1 -0.7334,-0.2647 l 0.23,-0.8486 a 2.5832,2.5832 0 0 0 0.5879,0.2148 2.8033,2.8033 0 0 0 0.6621,0.0782 1.2329,1.2329 0 0 0 0.8565,-0.251 1.0085,1.0085 0 0 0 0.2705,-0.7715 V 9.4439 A 1.5212,1.5212 0 0 1 5.8173,9.8814 1.6055,1.6055 0 0 1 5.1093,10.0308 1.6522,1.6522 0 0 1 3.7265,9.3853 2.6764,2.6764 0 0 1 3.2245,7.692 Z M 4.3031,7.6924 A 1.8947,1.8947 0 0 0 4.5668,8.7529 0.913,0.913 0 0 0 5.3852,9.1504 1.0994,1.0994 0 0 0 5.9682,9.0059 1.0615,1.0615 0 0 0 6.352,8.5908 V 6.4834 A 1.15,1.15 0 0 0 5.9633,6.0723 1.0461,1.0461 0 0 0 5.394,5.9229 0.8839,0.8839 0 0 0 4.5717,6.3896 2.402,2.402 0 0 0 4.3031,7.5986 Z" id="path26649" />
   <path class="cls-3" d="m 12.7777,7.6924 a 2.7228,2.7228 0 0 1 -0.49,1.6963 1.6369,1.6369 0 0 1 -1.3808,0.6425 A 1.5894,1.5894 0 0 1 10.1285,9.8486 1.5139,1.5139 0 0 1 9.5768,9.3154 L 9.4703,9.9375 H 8.5649 V 3.002 H 9.643 v 2.6718 a 1.544,1.544 0 0 1 0.5322,-0.4707 1.51,1.51 0 0 1 0.7227,-0.165 1.5953,1.5953 0 0 1 1.39,0.7021 3.1845,3.1845 0 0 1 0.49,1.8584 z M 11.7006,7.5986 A 2.479,2.479 0 0 0 11.4428,6.3857 0.8657,0.8657 0 0 0 10.6274,5.9229 1.0705,1.0705 0 0 0 10.0258,6.0829 1.1169,1.1169 0 0 0 9.643,6.5272 v 2.0187 a 1.06,1.06 0 0 0 0.3808,0.4473 1.114,1.114 0 0 0 0.6123,0.1572 0.8931,0.8931 0 0 0 0.8116,-0.3936 1.9557,1.9557 0 0 0 0.2529,-1.0644 z" id="path26651" />
   <path class="cls-3" d="M 16.099,6.1006 15.6381,6.083 a 0.9606,0.9606 0 0 0 -0.5264,0.1338 0.8794,0.8794 0 0 0 -0.3252,0.377 V 9.9375 H 13.7084 V 5.127 h 0.9844 l 0.0713,0.6982 a 1.5454,1.5454 0 0 1 0.4677,-0.5781 1.084,1.084 0 0 1 0.6582,-0.209 0.9834,0.9834 0 0 1 0.1827,0.0156 1.4333,1.4333 0 0 1 0.1543,0.0381 z" id="path26653" />
   <path class="cls-4" d="M 24,16.9961 A 6.9925,6.9925 0 1 1 17.0074,9.9922 6.9981,6.9981 0 0 1 24,16.9961 Z" id="path26655" />
   <line class="cls-5" x1="17.111099" y1="13.6254" x2="17.111099" y2="20.629299" id="line26657" />
   <polyline class="cls-5" points="15.362 17.16 18.111 14.406 20.861 17.16" id="polyline26659" transform="translate(-1,-1)" />
</svg>
