<?xml version="1.0" encoding="UTF-8" standalone="no"?>
<svg
   xmlns:dc="http://purl.org/dc/elements/1.1/"
   xmlns:cc="http://creativecommons.org/ns#"
   xmlns:rdf="http://www.w3.org/1999/02/22-rdf-syntax-ns#"
   xmlns:svg="http://www.w3.org/2000/svg"
   xmlns="http://www.w3.org/2000/svg"
   xmlns:sodipodi="http://sodipodi.sourceforge.net/DTD/sodipodi-0.dtd"
   xmlns:inkscape="http://www.inkscape.org/namespaces/inkscape"
   id="Слой_1"
   data-name="Слой 1"
   viewBox="0 0 24 24"
   version="1.1"
   sodipodi:docname="ps_diff_pair_gap.svg"
   inkscape:version="1.0.1 (3bc2e813f5, 2020-09-07)">
  <sodipodi:namedview
     pagecolor="#ffffff"
     bordercolor="#666666"
     borderopacity="1"
     objecttolerance="10"
     gridtolerance="10"
     guidetolerance="10"
     inkscape:pageopacity="0"
     inkscape:pageshadow="2"
     inkscape:window-width="1609"
     inkscape:window-height="1286"
     id="namedview30"
     showgrid="true"
     inkscape:zoom="27.961538"
     inkscape:cx="3.3259971"
     inkscape:cy="13"
     inkscape:window-x="0"
     inkscape:window-y="37"
     inkscape:window-maximized="0"
     inkscape:document-rotation="0"
     inkscape:current-layer="Слой_1">
    <inkscape:grid
       type="xygrid"
       id="grid_kicad"
       spacingx="0.5"
       spacingy="0.5"
       color="#9999ff"
       opacity="0.13"
       empspacing="2" />
  </sodipodi:namedview>
  <metadata
     id="metadata43">
    <rdf:RDF>
      <cc:Work
         rdf:about="">
        <cc:license
           rdf:resource="http://creativecommons.org/licenses/by-sa/4.0/" />
        <dc:format>image/svg+xml</dc:format>
        <dc:type
           rdf:resource="http://purl.org/dc/dcmitype/StillImage" />
        <dc:title>add_arc</dc:title>
      </cc:Work>
      <cc:License
         rdf:about="http://creativecommons.org/licenses/by-sa/4.0/">
        <cc:permits
           rdf:resource="http://creativecommons.org/ns#Reproduction" />
        <cc:permits
           rdf:resource="http://creativecommons.org/ns#Distribution" />
        <cc:requires
           rdf:resource="http://creativecommons.org/ns#Notice" />
        <cc:requires
           rdf:resource="http://creativecommons.org/ns#Attribution" />
        <cc:permits
           rdf:resource="http://creativecommons.org/ns#DerivativeWorks" />
        <cc:requires
           rdf:resource="http://creativecommons.org/ns#ShareAlike" />
      </cc:License>
    </rdf:RDF>
  </metadata>
  <defs
     id="defs26695">
    <style
       id="style26693">.cls-1,.cls-2{fill:none;stroke-linecap:round;stroke-linejoin:round;}.cls-1{stroke:#545454;}.cls-2{stroke:#1a81c4;stroke-width:2px;}.cls-3{fill:#545454;}</style>
  </defs>
  <title
     id="title26697">ps_diff_pair_gap</title>
  <line
     class="cls-1"
     x1="7.5"
     y1="10.5"
     x2="0.5"
     y2="10.5"
     id="line26699" />
  <line
     class="cls-1"
     x1="7.5"
     y1="14.5"
     x2="0.5"
     y2="14.5"
     id="line26701" />
  <polyline
     class="cls-2"
     points="8 11 12 11 17 3.006 24 3.006"
     id="polyline26703"
     transform="translate(-1,-1)" />
  <polyline
     class="cls-2"
     points="8 16 15 16 20 8.006 24 8.006"
     id="polyline26705"
     transform="translate(-1,-1)" />
  <line
     class="cls-1"
     x1="2.5"
     y1="5.5479999"
     x2="2.5"
     y2="0.49849999"
     id="line26707" />
  <polygon
     class="cls-3"
     points="3.5,10.978 2.047,5.557 4.953,5.557 "
     id="polygon26709"
     transform="translate(-1,-1)" />
  <line
     class="cls-1"
     x1="2.5"
     y1="19.475401"
     x2="2.5"
     y2="23.530399"
     id="line26711" />
  <polygon
     class="cls-3"
     points="3.5,16.046 4.953,21.466 2.047,21.466 "
     id="polygon26713"
     transform="translate(-1,-1)" />
</svg>
